
 [{
  "firstName": "Ivan",
  "lastName": "Ivanov",
  "address": "g Moskva, ul. Alieva,2",
  "phoneNumber": "812 123-1234"}, 
  {
  "firstName": "Petr",
  "lastName": "Petrov",
  "address": "g Petrovsk, ul. Babaeva,3",
  "phoneNumber": "333 456-4321"},
  {
  "firstName": "Sidor",
  "lastName": "Sidorovov",
  "address": "g Tula, ul. Kosmonavtov,5",
  "phoneNumber": "596 111-8751"}
]
